<svg version="1.1" id="logo-in_fine" xmlns="http://www.w3.org/2000/svg" xmlns:xlink="http://www.w3.org/1999/xlink" x="0px" y="0px" viewBox="0 0 207.6 98.4" enable-background="new 0 0 207.6 98.4" xml:space="preserve">
	<g>
		<g>
			<path class="path" fill="#000" d="M27.2,7.8c-3.8,0-8,3.8-8,8.6c0,3.1,1.7,5.8,5.2,5.8c3.5,0,8.1-3.7,8.1-8.6C32.5,10.5,30.8,7.8,27.2,7.8z"/>
			<path class="path" fill="#000" d="M65.9,51.1c0,6.5-8,12.5-15,12.5c-6.1,0-8.4-2.4-8.4-6.4c0-7.6,6.6-16.6,6.8-22.4c0-1-0.6-1.6-1.5-1.6c-4.4,0-7.5,7.3-10,14c-4.5,12-5.1,14.2-5.1,15.6c-4.8,0-8.5,0-9.2-3.1c-3,2.4-6.8,3.9-10.1,3.9c-5,0-7.7-2.6-7.7-7.7c0-2.2,0.2-5.1,2.7-11.4c5.9-15,10.6-15.3,17.7-15.3c-0.8,1.2-2.2,3.9-7.1,17C16.1,54,14.6,58.3,14.6,59c0,1.2,0.3,1.6,1.8,1.6c2.6,0,5-1.6,7-4c0.3-1.7,1.2-4.5,4-12.1c5.5-15,9.9-15.3,13.4-15.3c-0.3,0.7-0.6,1.5-0.6,2.2c0,1,0.3,1.6,1.1,1.6c4.3,0,8.1-4.7,14.3-4.7c3.6,0,5.4,1.2,5.4,4.3c0,6-9,17.2-9,25.9c0,1.4,0.1,2.1,1.8,2.1c4.8,0,8.7-5.3,11.7-11.3C65.7,49.9,65.9,50.5,65.9,51.1z"/>
			<path class="path" fill="#000" d="M196.1,49.4c-5.2,8.9-9.6,12.2-18.9,12.2c-3.7,0-4.8-2.5-4.8-5.5c0-3.2,0.4-6,1.5-8c1,0.4,2.2,0.6,3.9,0.6c7.2,0,17.1-5.9,17.1-14.2c0-5.1-5.3-6-9.3-6c-10.9,0-24.8,9.5-24.8,24.6c0,0.1,0,0.2,0,0.3c-2.6,4.2-5.8,7.4-9.5,7.4c-1.7,0-1.8-0.7-1.8-2.1c0-8.7,9-20,9-25.9c0-3.1-1.8-4.3-5.4-4.3c-6.2,0-10,4.7-14.3,4.7c-0.8,0-1.1-0.6-1.1-1.6c0-0.7,0.2-1.4,0.6-2.2c-3.5,0-7.8,0.2-13.3,15.3c-2.7,7.4-3.7,10.3-4,12c-2,2.4-4.5,4.1-7.2,4.1c-1.4,0-1.8-0.4-1.8-1.6c0-0.6,0.2-1.2,4.6-12.8c5.2-13.9,5.7-15.5,7.2-17.4c-0.9,0.2-12.1,0.4-20.8,0.4c4.1-12.6,10.4-20.4,14.2-20.4c1.1,0,1.8,0.5,2.1,1.5c-1.7,1.7-2.7,3.8-2.7,6.2c0,3.1,1.7,5.8,5.2,5.8c3.8,0,8.2-3.8,8.2-8.8c0-5.8-3.6-7.7-11-7.7c-10.2,0-18.6,4-27.3,23.6c-4.1,0-6.1,1.9-7.7,4.7c1-0.2,2-0.4,6-0.4l-8.3,22.4c-7.3,19.7-12.7,26.7-17.4,31c7.1,0,18.3-3,29.2-32.4l7.8-21c3.6,0,7.5-0.2,11.1-0.8c-2.3,2.3-4.3,5.7-6.8,11.8c-2.6,6.4-2.7,9.3-2.7,11.4c0,5.1,2.7,7.7,7.8,7.7c3.3,0,7.1-1.5,10-3.9c0.8,3.1,4.4,3.1,9.3,3.1c0-1.5,0.6-3.6,5.1-15.6c2.5-6.7,5.6-14,10-14c1,0,1.5,0.6,1.5,1.6c-0.2,5.8-6.8,14.8-6.8,22.4c0,4,2.3,6.4,8.4,6.4c4.9,0,10.2-2.9,13.1-6.9c2,5.8,8.9,7.5,15.8,7.5c6.1,0,19.1-4.7,19.1-14.4c0-0.2,0-0.2,0-0.3C196.2,49.6,196.2,49.6,196.1,49.4z M184.6,30.5c1.3,0,1.6,1.4,1.6,3.2c0,6.3-6,12.1-11.7,12.3C176.8,39.6,180.9,30.5,184.6,30.5z"/>
			<path class="path" fill="#000" d="M196.2,49.6C196.2,49.6,196.2,49.6,196.2,49.6L196.2,49.6z"/>
		</g>
	</g>
</svg>